{
    "description" : "sg1 all green",

    "sg1" :{
        "times_turn_green" : [0.1],
        "times_turn_amber" : [60.1],
        "times_turn_red"   : [62.2]
    },

    "sg2" :{
        "times_turn_green" : [],
        "times_turn_amber" : [],
        "times_turn_red"   : []
    }

} 